0 138 0 4 0 14
5 1 6
5 1 4
4 2 5
4 2 6
4 2 3
4 2 1
6 3 2
6 3 5
2 4 1
2 4 5
2 4 3
1 5 4
1 5 6
1 5 3
3 6 2
3 6 1
3 6 5
5 1 41
5 1 39
5 1 38
5 1 33
5 1 34
5 1 35
5 1 30
5 1 29
5 1 31
5 1 25
5 1 26
5 1 27
5 1 24
5 1 23
5 1 22
5 1 20
5 1 19
5 1 18
5 1 21
5 1 14
5 1 13
5 1 15
5 1 16
5 1 10
5 1 9
5 1 11
5 1 12
5 1 8
5 1 7
4 2 40
4 2 41
4 2 37
4 2 36
4 2 38
4 2 33
4 2 32
4 2 34
4 2 30
4 2 29
4 2 28
4 2 31
4 2 25
4 2 26
4 2 24
4 2 23
4 2 22
4 2 20
4 2 19
4 2 18
4 2 21
4 2 14
4 2 13
4 2 15
4 2 16
4 2 17
4 2 10
4 2 9
4 2 11
4 2 12
4 2 8
4 2 7
2 4 40
2 4 41
2 4 39
2 4 38
2 4 37
2 4 35
2 4 34
2 4 32
2 4 33
2 4 31
2 4 28
2 4 29
2 4 30
2 4 22
2 4 23
2 4 24
2 4 26
2 4 25
2 4 18
2 4 19
2 4 20
2 4 17
2 4 16
2 4 15
2 4 13
2 4 14
2 4 11
2 4 10
2 4 8
1 5 39
1 5 38
1 5 36
1 5 37
1 5 35
1 5 34
1 5 32
1 5 33
1 5 31
1 5 28
1 5 29
1 5 30
1 5 22
1 5 23
1 5 24
1 5 27
1 5 26
1 5 25
1 5 18
1 5 19
1 5 20
1 5 15
1 5 13
1 5 14
1 5 11
1 5 9
1 5 10
1 5 8
1 5 7
1 5 40
1 5 41
0 0 3
0 0 3
0 0 6
0 0 6
0
0,707 2
0,707 4
0,707 2
0,707 3
0,707 3
0,707 3
0,707 10
0,707 19
0,707 16
0,707 16
0,707 13
0,707 16
0,707 16
0,707 15
0,1 0,1
0,1 0,1
0
0
0
0

