********************************************************************************
                                     NET2D
                                Versão: Alpha1
********************************************************************************
                             FICHEIRO DE RESULTADOS
                               31-05-2013 17:47:37
********************************************************************************

1) Informação

Numero de incógnitas: ........... 20

Numero de equacoes: ............. 30
  de diferença de angulos: ...... 8
  de diferença de distâncias: ... 18
  de condição: .................. 4

Redundância média: .............. 0,333     

2) Deslocamentos estimados

Designação  DX        DY        
--------------------------------
P1          0,9       0,0       
P2          -0,5      -2,1      
P3          7,7       -21,9     
P4          -0,6      -28,1     
P5          -7,8      -27,1     
P6          -9,2      -19,8     
P7          -3,0      -6,2      
P8          -1,9      -0,4      
---
PD          0,0       0,0       
PE          0,0       0,0       

3) Observações ajustadas

3.1) Diferenças de ângulos

origem    estação   visado      DPA       leitura   resíduo   
--------------------------------------------------------------
*
PD        P1        P2          1,4       2,4       -0,1      
*
P1        P2        P3          1,4       153,0     -0,1      
*
P2        P3        P4          1,4       -132,0    -0,2      
*
P3        P4        P5          1,4       -28,5     -0,3      
*
P4        P5        P6          1,4       -62,5     -0,3      
*
P5        P6        P7          1,4       -103,3    -0,3      
*
P6        P7        P8          1,4       133,8     -0,3      
*
P7        P8        PE          1,4       29,9      -0,2      

3.2) Diferenças de distância

estação   visado      DPA       leitura   resíduo   
----------------------------------------------------
PD        P1          2,1       0,1       0,6       
P1        PD          2,1       0,2       0,5       
P1        P2          2,1       -2,9      0,5       
P2        P1          2,1       -3,2      0,8       
P2        P3          2,2       -4,3      0,7       
P3        P2          2,2       -4,3      0,7       
P3        P4          2,2       -10,4     0,9       
P4        P3          2,2       -10,6     1,1       
P4        P5          2,1       -8,6      1,3       
P5        P4          2,1       -8,1      0,8       
P5        P6          2,1       -5,4      1,0       
P6        P5          2,1       -5,5      1,1       
P6        P7          2,1       -3,8      1,0       
P7        P6          2,1       -3,7      0,9       
P7        P8          2,2       -4,4      0,8       
P8        P7          2,2       -4,6      1,0       
P8        PE          2,7       -1,2      2,4       
PE        P8          2,7       0,6       0,6       

3.3) Equações de condição

estação   componente  DPA       leitura   resíduo   
----------------------------------------------------
PD        dX          0,1       0,0       0,0       
PD        dY          0,1       0,0       0,0       
PE        dX          0,1       0,0       0,0       
PE        dY          0,1       0,0       0,0       

3.4) DP da unidade de peso, a posteriori (global)) 

s0 : +/- 0,620     

********************************************************************************
EOF - NET2D Versão: Alpha1
